{
  "url":  {
    "intersport" : "https://m2stagingintersport.gresvigdev.com/",
    "gsport" : "https://m2staging.gresvigdev.com/"
  },
  "gsport" : {
    "url" : "gsport",
    "prod" : false,
    "dev" : false,
    "cartButton" : ".showcart",
    "addToCartButton" : "#product-addtocart-button",
    "checkoutButton" : "#top-cart-btn-checkout",
    "removeFromCartButton" : ".actions-wrap",
    "modalAcceptButton" : ".action-primary.action-accept",
    "closeButton" : ".action-close",
    "submitCheckoutButton" : ".totals_bottom .action.primary.checkout",
    "newsletterButton" : "#newsletter-validate-detail > div.actions > button",
    "passwordChangeButton" : "#maincontent > div.columns > div > div:nth-child(5) > div.account-info > div.account-profile > div > div > a:nth-child(4)",
    "khCheckout" : {
      "addToClickAndHent" : "#product_add_to_klikk_and_hent",
      "addKhButton" : {
        "dev" : "#kh_store_146 > div.store-add > button",
        "production" : ".add_product_to_klikk_and_hent.action.primary"
      }
    },
    "checkoutForm" : {
      "inputFields" : {
        "customerEmail": "#customer-email",
        "telephone": "input[name='telephone']",
        "firstname": "input[name='firstname']",
        "lastname": "input[name='lastname']",
        "street": "input[name='street[0]']",
        "postcode": "#zip-code-input",
        "city": "input[name='city']",
        "paymentOption": "#payex_cc"
      },
      "paymentOption" : {
        "production": "ul.pickup-points-list > li.pickup-point > ul > li > input",
        "staging": "ul.pickup-points-list > li.pickup-point > ul > li > input",
        "dev" : "#s_method_tollpost_HomeDelivery"
      }
    },
    "loginForm" : {
      "main" : "#login-form",
      "emailInput" : "#login-form > fieldset > div.field.email.required > div > input",
      "passwordInput" : "#login-form > fieldset > div.field.password.required > div > input",
      "submitButton" : "#send2"
    },
    "regForm" : {
      "main" : "#form-validate",
      "phone" : "#customer_phone",
      "firstname" : "#firstname",
      "lastname" : "#lastname",
      "street" : "",
      "zip" : "",
      "city" : "",
      "email" : "#email_address",
      "password" : "#password",
      "passwordConfirm" : "#password-confirmation",
      "submitButton" : "#form-validate > div > div.primary > button",
      "verification" : "#maincontent > div.columns > div > div.page.messages > div:nth-child(2) > div"
    },
    "navbarSelectors" : [
      {
        "sko": ".ui-menu > .nav-3 > a",
        "Barn": {
          "main": "#ui-id-5",
          "sko" : "#ui-id-68"
        }
      }
    ],
    "productLink" : [
      {
        "list" : ".products.list.items.product-items",
        "productLinkButton" : "div.products.wrapper.grid.products-grid.amscroll-page > ol > li:nth-child(1) > div > a"
      }
    ],
    "wishlistActions" : [
      {
        "addToWishlistFromCatalogButton" : ".action.towishlist",
        "addToWishlistFromProductButton" : ".product-addto-links > a",
        "removeToWishlistButton" : ".btn-remove.action.delete"
      }
    ],
    "filters" : [
      {
        "brandFilter" : ".filter-item[data-name='merke']",
        "brand" : "#subcontent_container > ul > li.item_custom > span"
      }
    ]
  },
  "intersport" : {
    "url" : "intersport",
    "prod" : false,
    "dev" : false,
    "cartButton" : ".showcart",
    "addToCartButton" : "#product-addtocart-button",
    "checkoutButton" : "#top-cart-btn-checkout",
    "removeFromCartButton" : ".actions-wrap",
    "modalAcceptButton" : ".action-primary.action-accept",
    "closeButton" : ".action-close",
    "submitCheckoutButton" : ".totals_bottom .action.primary.checkout",
    "newsletterButton" : "#newsletter-validate-detail > div.actions > button",
    "passwordChangeButton" : "#maincontent > div.columns > div > div:nth-child(5) > div.account-info > div.account-profile > div > div > a:nth-child(4)",
    "checkoutForm" : {
      "inputFields" : {
        "customerEmail": "#customer-email",
        "telephone": "input[name='telephone']",
        "firstname": "input[name='firstname']",
        "lastname": "input[name='lastname']",
        "street": "input[name='street[0]']",
        "postcode": "#zip-code-input",
        "city": "input[name='city']",
        "paymentOption": "ul.pickup-points-list > li.pickup-point > ul > li > input"
      }
    },
    "loginForm" : {
      "main" : "#login-form",
      "emailInput" : "#login-form > fieldset > div.field.email.required > div > input",
      "passwordInput" : "#login-form > fieldset > div.field.password.required > div > input",
      "submitButton" : "#send2"
    },
    "regForm" : {
      "main" : "#form-validate",
      "phone" : "#customer_phone",
      "firstname" : "#firstname",
      "lastname" : "#lastname",
      "street" : "",
      "zip" : "",
      "city" : "",
      "email" : "#email_address",
      "password" : "#password",
      "passwordConfirm" : "#password-confirmation",
      "submitButton" : "#form-validate > div > div.primary > button",
      "verification" : "#maincontent > div.columns > div > div.page.messages > div:nth-child(2) > div"
    },
    "navbarSelectors" : [
      {
        "sko": ".ui-menu > .nav-3 > a",
        "Barn": {
          "main": "#ui-id-5",
          "sko" : "#ui-id-68"
        }
      }
    ],
    "productLink" : [
      {
        "list" : ".products.list.items.product-items",
        "productLinkButton" : "div.products.wrapper.grid.products-grid.amscroll-page > ol > li:nth-child(1) > div > a"
      }
    ],
    "wishlistActions" : [
      {
        "addToWishlistFromCatalogButton" : ".action.towishlist",
        "addToWishlistFromProductButton" : ".product-addto-links > a",
        "removeToWishlistButton" : ".btn-remove.action.delete"
      }
    ],
    "filters" : [
      {
        "brandFilter" : ".filter-item[data-name='merke']",
        "brand" : "#subcontent_container > ul > li.item_custom > span"
      }
    ]
  }
}
