{
  "url": {
    "intersport" : "intersport",
    "gsport": "gsport"
  },
  "env" : {
    "dev" : "dev",
    "staging" : "staging",
    "production" : "production"
  },
  "name" : {
    "login" : "login",
    "checkout" : "checkout",
    "sizeChart" : "sizeChart",
    "registration" : "registration",
    "newsletterSubscribe" : "newsletterSubscribe",
    "addToWishlistFromCatalog" : "addToWishlistFromCatalog",
    "changeProductQuantityInCart" : "changeProductQuantityInCart",
    "brandsFilter" : "brandsFilter",
    "priceFilter" : "priceFilter",
    "addToWishlistFromProduct" : "addToWishlistFromProduct",
    "sizeFilter" : "sizeFilter",
    "passwordReset" : "passwordReset",
    "instantSearch" : "instantSearch",
    "search" : "search",
    "addAndRemoveProductFromCart" : "addAndRemoveProductFromCart",
    "sizeUrlOptionTest" : "sizeUrlOptionTest",
    "all": "all"
  },
  "headless" : true
}
